{
  "flow": {
    "onboarding": {
      "$contentActions": [
        {
          "input": {
            "bypass": false,
            "$cardContent": {
              "document": {
                "id": "64c7b9eb-71fe-4c6b-863c-5d263cd9b655",
                "type": "text/plain",
                "content": "Entrada do usuário"
              },
              "editable": false,
              "deletable": false,
              "position": "right",
              "editing": false
            },
            "$invalid": false
          },
          "$invalid": false
        }
      ],
      "$conditionOutputs": [
        {
          "stateId": "welcome",
          "conditions": [
            { "source": "input", "comparison": "matches", "values": [".*"] }
          ],
          "$id": "306214dc-d76d-444d-be85-6d83081258c2",
          "$connId": "con_3",
          "$invalid": false
        }
      ],
      "$enteringCustomActions": [],
      "$leavingCustomActions": [],
      "$inputSuggestions": [],
      "$defaultOutput": { "stateId": "fallback", "$invalid": false },
      "$tags": [],
      "id": "onboarding",
      "root": true,
      "$title": "Início",
      "$position": { "top": "120px", "left": "644px" },
      "$invalidContentActions": false,
      "$invalidOutputs": false,
      "$invalidCustomActions": false,
      "$invalid": false
    },
    "fallback": {
      "$contentActions": [
        {
          "input": {
            "bypass": true,
            "$cardContent": {
              "document": {
                "id": "8e1c3bcb-3e44-4156-8973-63b11c3ee4d7",
                "type": "text/plain",
                "content": "Entrada do usuário"
              },
              "editable": false,
              "deletable": true,
              "position": "right",
              "editing": false
            },
            "$invalid": false
          },
          "$invalid": false
        }
      ],
      "$conditionOutputs": [
        {
          "stateId": "error",
          "conditions": [
            { "source": "input", "comparison": "matches", "values": [".*"] }
          ],
          "$id": "7a8bd056-ec4a-432d-a2c8-4605f436b283",
          "$connId": "con_8",
          "$invalid": false
        }
      ],
      "$enteringCustomActions": [],
      "$leavingCustomActions": [],
      "$inputSuggestions": [],
      "$defaultOutput": { "stateId": "onboarding", "$invalid": false },
      "$tags": [],
      "id": "fallback",
      "$title": "Exceções",
      "$position": { "top": "120px", "left": "877px" },
      "$invalidContentActions": false,
      "$invalidOutputs": false,
      "$invalidCustomActions": false,
      "$invalid": false
    },
    "welcome": {
      "$contentActions": [
        {
          "action": {
            "$id": "3098dd41-4c3e-4e64-a6c3-626f6ffc6918",
            "$typeOfContent": "chat-state",
            "type": "SendMessage",
            "settings": {
              "id": "7d181949-b6ac-4559-9747-10a31a4b0dec",
              "type": "application/vnd.lime.chatstate+json",
              "content": { "state": "composing", "interval": 1000 }
            },
            "$cardContent": {
              "document": {
                "id": "7d181949-b6ac-4559-9747-10a31a4b0dec",
                "type": "application/vnd.lime.chatstate+json",
                "content": { "state": "composing", "interval": 1000 }
              },
              "editable": true,
              "deletable": true,
              "position": "left"
            }
          },
          "$invalid": false
        },
        {
          "action": {
            "$id": "ee78892e-2760-4653-9aa8-a24ba807ac56",
            "$typeOfContent": "",
            "type": "SendMessage",
            "settings": {
              "id": "00000000-0000-0000-0000-000000000001",
              "type": "text/plain",
              "content": "Olá, espero que esteja tudo.\nSou a Lora responsável por passar os valores da Take. ",
              "metadata": {}
            },
            "$cardContent": {
              "document": {
                "id": "00000000-0000-0000-0000-000000000001",
                "type": "text/plain",
                "content": "Olá, espero que esteja tudo.\nSou a Lora responsável por passar os valores da Take. "
              },
              "editable": true,
              "deletable": true,
              "position": "left",
              "editing": false
            }
          },
          "$invalid": false
        },
        {
          "action": {
            "$id": "f7dbaad5-4ec2-4f5f-80d8-920f42ad6c7c",
            "$typeOfContent": "chat-state",
            "type": "SendMessage",
            "settings": {
              "id": "e42a1e9b-e45f-4946-978f-f65943223714",
              "type": "application/vnd.lime.chatstate+json",
              "content": { "state": "composing", "interval": 1000 }
            },
            "$cardContent": {
              "document": {
                "id": "e42a1e9b-e45f-4946-978f-f65943223714",
                "type": "application/vnd.lime.chatstate+json",
                "content": { "state": "composing", "interval": 1000 }
              },
              "editable": true,
              "deletable": true,
              "position": "left"
            }
          },
          "$invalid": false
        },
        {
          "action": {
            "$id": "5922b1ec-6b5b-4362-8356-c5f622d6c4b3",
            "$typeOfContent": "text",
            "type": "SendMessage",
            "settings": {
              "id": "c700cc61-3ac3-433d-8a16-e73411628436",
              "type": "text/plain",
              "content": "Mesmo eu sendo um robô e\nnão tendo consciência sobre o que é valores, posso te ajudar de alguma forma.",
              "metadata": {}
            },
            "$cardContent": {
              "document": {
                "id": "c700cc61-3ac3-433d-8a16-e73411628436",
                "type": "text/plain",
                "content": "Mesmo eu sendo um robô e\nnão tendo consciência sobre o que é valores, posso te ajudar de alguma forma."
              },
              "editable": true,
              "deletable": true,
              "position": "left"
            }
          },
          "$invalid": false
        },
        {
          "input": {
            "bypass": true,
            "$cardContent": {
              "document": {
                "id": "93015665-72bf-4154-8bc1-453469d5752e",
                "type": "text/plain",
                "content": "Entrada do usuário"
              },
              "editable": false,
              "deletable": true,
              "position": "right",
              "editing": false
            },
            "$invalid": false
          },
          "$invalid": false
        }
      ],
      "$conditionOutputs": [],
      "$enteringCustomActions": [],
      "$leavingCustomActions": [],
      "$inputSuggestions": ["First option", "Second option"],
      "$defaultOutput": {
        "stateId": "deccb5ac-7418-4703-9324-0e630661fbc5",
        "$invalid": false,
        "typeOfStateId": "state"
      },
      "$tags": [],
      "id": "welcome",
      "$title": "Saudação",
      "$position": { "top": "239px", "left": "644px" },
      "$invalidContentActions": false,
      "$invalidOutputs": false,
      "$invalidCustomActions": false,
      "$invalid": false
    },
    "error": {
      "$contentActions": [
        {
          "action": {
            "$id": "f46b7248-316a-430b-9cbb-64a3969461ec",
            "$typeOfContent": "",
            "type": "SendMessage",
            "settings": {
              "id": "00000000-0000-0000-0000-000000000002",
              "type": "application/vnd.lime.chatstate+json",
              "content": { "state": "composing", "interval": 1000 }
            },
            "$cardContent": {
              "document": {
                "id": "00000000-0000-0000-0000-000000000002",
                "type": "application/vnd.lime.chatstate+json",
                "content": { "state": "composing", "interval": 1000 }
              },
              "editable": true,
              "deletable": true,
              "position": "left",
              "editing": false
            }
          },
          "$invalid": false
        },
        {
          "action": {
            "$id": "7c68d61b-7cae-418f-b969-fd37e34121e6",
            "$typeOfContent": "",
            "type": "SendMessage",
            "settings": {
              "id": "00000000-0000-0000-0000-000000000003",
              "type": "text/plain",
              "content": "Desculpe, não consegui entender!"
            },
            "$cardContent": {
              "document": {
                "id": "00000000-0000-0000-0000-000000000003",
                "type": "text/plain",
                "content": "Desculpe, não consegui entender!"
              },
              "editable": true,
              "deletable": true,
              "position": "left",
              "editing": false
            }
          },
          "$invalid": false
        },
        {
          "input": {
            "bypass": true,
            "$cardContent": {
              "document": {
                "id": "4163f157-be7b-4b5e-aca4-cd3a10e84e6a",
                "type": "text/plain",
                "content": "Entrada do usuário"
              },
              "editable": false,
              "deletable": true,
              "position": "right",
              "editing": false
            },
            "$invalid": false
          },
          "$invalid": false
        }
      ],
      "$conditionOutputs": [],
      "$enteringCustomActions": [],
      "$leavingCustomActions": [],
      "$inputSuggestions": [],
      "$defaultOutput": { "stateId": "onboarding", "$invalid": false },
      "$tags": [],
      "id": "error",
      "$title": "Erro padrão",
      "$position": { "top": "240px", "left": "877px" },
      "$invalidContentActions": false,
      "$invalidOutputs": false,
      "$invalidCustomActions": false,
      "$invalid": false
    },
    "deccb5ac-7418-4703-9324-0e630661fbc5": {
      "$contentActions": [
        {
          "action": {
            "$id": "cb37ca80-7f73-4a00-9ffd-6b81f6f4f4bc",
            "$typeOfContent": "chat-state",
            "type": "SendMessage",
            "settings": {
              "id": "df17f247-1b4c-425b-ac59-179fc2dc6481",
              "type": "application/vnd.lime.chatstate+json",
              "content": { "state": "composing", "interval": "4000" },
              "metadata": {}
            },
            "$cardContent": {
              "document": {
                "id": "df17f247-1b4c-425b-ac59-179fc2dc6481",
                "type": "application/vnd.lime.chatstate+json",
                "content": { "state": "composing", "interval": "4000" }
              },
              "editable": true,
              "deletable": true,
              "position": "left"
            }
          },
          "$invalid": false,
          "$$hashKey": "object:2735"
        },
        {
          "action": {
            "$id": "6881e33e-d1ef-428e-a89e-e773f1cf6004",
            "$typeOfContent": "text",
            "type": "SendMessage",
            "settings": {
              "id": "aac74ead-10a6-405c-a471-3ea07de2515f",
              "type": "text/plain",
              "content": "Vamos lá...",
              "metadata": {}
            },
            "$cardContent": {
              "document": {
                "id": "aac74ead-10a6-405c-a471-3ea07de2515f",
                "type": "text/plain",
                "content": "Vamos lá..."
              },
              "editable": true,
              "deletable": true,
              "position": "left"
            }
          },
          "$invalid": false,
          "$$hashKey": "object:2736"
        },
        {
          "action": {
            "$id": "179274a7-ec2d-4b8f-92bc-ff1e418b4c4d",
            "$typeOfContent": "chat-state",
            "type": "SendMessage",
            "settings": {
              "id": "a4ad27c9-9388-4787-ab02-8e45623e12aa",
              "type": "application/vnd.lime.chatstate+json",
              "content": { "state": "composing", "interval": 1000 }
            },
            "$cardContent": {
              "document": {
                "id": "a4ad27c9-9388-4787-ab02-8e45623e12aa",
                "type": "application/vnd.lime.chatstate+json",
                "content": { "state": "composing", "interval": 1000 }
              },
              "editable": true,
              "deletable": true,
              "position": "left"
            }
          },
          "$invalid": false,
          "$$hashKey": "object:2737"
        },
        {
          "action": {
            "$id": "edf76e93-2b9f-4620-b618-e8d93052d658",
            "$typeOfContent": "text",
            "type": "SendMessage",
            "settings": {
              "id": "acf9a694-e20f-4bd7-a5a6-3b30657ae143",
              "type": "text/plain",
              "content": "A cultura Take tem como base 6 valores que são:",
              "metadata": {}
            },
            "$cardContent": {
              "document": {
                "id": "acf9a694-e20f-4bd7-a5a6-3b30657ae143",
                "type": "text/plain",
                "content": "A cultura Take tem como base 6 valores que são:"
              },
              "editable": true,
              "deletable": true,
              "position": "left"
            }
          },
          "$invalid": false,
          "$$hashKey": "object:2738"
        },
        {
          "action": {
            "$id": "dbf0c4c3-9e50-45cb-aaa2-b1fe515e8793",
            "$typeOfContent": "chat-state",
            "type": "SendMessage",
            "settings": {
              "id": "ddd82d60-b05d-4d4d-a5bc-f288b215706b",
              "type": "application/vnd.lime.chatstate+json",
              "content": { "state": "composing", "interval": 1000 }
            },
            "$cardContent": {
              "document": {
                "id": "ddd82d60-b05d-4d4d-a5bc-f288b215706b",
                "type": "application/vnd.lime.chatstate+json",
                "content": { "state": "composing", "interval": 1000 }
              },
              "editable": true,
              "deletable": true,
              "position": "left"
            }
          },
          "$invalid": false,
          "$$hashKey": "object:2739"
        },
        {
          "action": {
            "$id": "ab0631e9-0dbe-452b-930f-c21c809eac7b",
            "$typeOfContent": "document-select",
            "type": "SendMessage",
            "settings": {
              "id": "c0b4328f-5ad8-448c-8cd5-47fe67d95fa4",
              "type": "application/vnd.lime.collection+json",
              "content": {
                "itemType": "application/vnd.lime.document-select+json",
                "items": [
                  {
                    "header": {
                      "type": "application/vnd.lime.media-link+json",
                      "value": {
                        "title": "Take.Be",
                        "text": "Pessoas em 1º lugar",
                        "type": "image/png",
                        "uri": "https://i.imgur.com/xmkaNlW.png",
                        "aspectRatio": "2:1"
                      }
                    },
                    "options": [
                      {
                        "label": {
                          "type": "text/plain",
                          "value": "💙 Saber mais"
                        },
                        "value": null
                      }
                    ],
                    "id": 0,
                    "editing": false
                  },
                  {
                    "header": {
                      "type": "application/vnd.lime.media-link+json",
                      "value": {
                        "title": "Take.Team",
                        "text": "Em nosso time, cada pessoa dá o seu melhor",
                        "type": "image/png",
                        "uri": "https://i.imgur.com/iX8upLh.png",
                        "aspectRatio": "2:1"
                      }
                    },
                    "options": [
                      {
                        "label": {
                          "type": "text/plain",
                          "value": "🏳️ Saber mais"
                        },
                        "value": null
                      }
                    ],
                    "id": 1,
                    "editing": false
                  },
                  {
                    "header": {
                      "type": "application/vnd.lime.media-link+json",
                      "value": {
                        "title": "Take.Excellence",
                        "text": "Excelente é o nosso ponto de partida",
                        "type": "image/png",
                        "uri": "https://i.imgur.com/l8kLFVd.png",
                        "aspectRatio": "2:1"
                      }
                    },
                    "options": [
                      {
                        "label": {
                          "type": "text/plain",
                          "value": "⭐ Saber mais"
                        },
                        "value": null
                      }
                    ],
                    "editing": false,
                    "id": 2
                  },
                  {
                    "header": {
                      "type": "application/vnd.lime.media-link+json",
                      "value": {
                        "title": "Take.Charge",
                        "text": "Apropriar-se para fazer a diferença",
                        "type": "image/png",
                        "uri": "https://i.imgur.com/ZDQmziW.png",
                        "aspectRatio": "2:1"
                      }
                    },
                    "options": [
                      {
                        "label": {
                          "type": "text/plain",
                          "value": "⚡ Saber mais"
                        },
                        "value": null
                      }
                    ],
                    "editing": false,
                    "id": 3
                  },
                  {
                    "header": {
                      "type": "application/vnd.lime.media-link+json",
                      "value": {
                        "title": "Take.Simple",
                        "text": "Simplicidade é o último grau de sofisticação",
                        "type": "image/png",
                        "uri": "https://i.imgur.com/qdMmAIv.png",
                        "aspectRatio": "2:1"
                      }
                    },
                    "options": [
                      {
                        "label": {
                          "type": "text/plain",
                          "value": "🎯 Saber mais"
                        },
                        "value": null
                      }
                    ],
                    "editing": false,
                    "id": 4
                  },
                  {
                    "header": {
                      "type": "application/vnd.lime.media-link+json",
                      "value": {
                        "title": "Take.Higher",
                        "text": "Pensar grande e ir além",
                        "type": "image/png",
                        "uri": "https://i.imgur.com/HlpPuyu.png",
                        "aspectRatio": "2:1"
                      }
                    },
                    "options": [
                      {
                        "label": {
                          "type": "text/plain",
                          "value": "🚀 Saber mais"
                        },
                        "value": null
                      }
                    ],
                    "editing": false,
                    "id": 5
                  },
                  {
                    "header": {
                      "type": "application/vnd.lime.media-link+json",
                      "value": {
                        "title": "Desafio",
                        "text": "----",
                        "type": "image/png",
                        "uri": "https://i.imgur.com/h4urVOo.png",
                        "aspectRatio": "2:1"
                      }
                    },
                    "options": [
                      {
                        "label": {
                          "type": "text/plain",
                          "value": "Fazer desafio"
                        },
                        "value": null
                      }
                    ],
                    "editing": false,
                    "id": 6
                  }
                ]
              },
              "metadata": {}
            },
            "$cardContent": {
              "document": {
                "id": "c0b4328f-5ad8-448c-8cd5-47fe67d95fa4",
                "type": "application/vnd.lime.collection+json",
                "content": {
                  "itemType": "application/vnd.lime.document-select+json",
                  "items": [
                    {
                      "header": {
                        "type": "application/vnd.lime.media-link+json",
                        "value": {
                          "title": "Take.Be",
                          "text": "Pessoas em 1º lugar",
                          "type": "image/png",
                          "uri": "https://i.imgur.com/xmkaNlW.png",
                          "aspectRatio": "2:1"
                        }
                      },
                      "options": [
                        {
                          "label": {
                            "type": "text/plain",
                            "value": "💙 Saber mais"
                          },
                          "value": null
                        }
                      ],
                      "id": 0,
                      "editing": false
                    },
                    {
                      "header": {
                        "type": "application/vnd.lime.media-link+json",
                        "value": {
                          "title": "Take.Team",
                          "text": "Em nosso time, cada pessoa dá o seu melhor",
                          "type": "image/png",
                          "uri": "https://i.imgur.com/iX8upLh.png",
                          "aspectRatio": "2:1"
                        }
                      },
                      "options": [
                        {
                          "label": {
                            "type": "text/plain",
                            "value": "🏳️ Saber mais"
                          },
                          "value": null
                        }
                      ],
                      "id": 1,
                      "editing": false
                    },
                    {
                      "header": {
                        "type": "application/vnd.lime.media-link+json",
                        "value": {
                          "title": "Take.Excellence",
                          "text": "Excelente é o nosso ponto de partida",
                          "type": "image/png",
                          "uri": "https://i.imgur.com/l8kLFVd.png",
                          "aspectRatio": "2:1"
                        }
                      },
                      "options": [
                        {
                          "label": {
                            "type": "text/plain",
                            "value": "⭐ Saber mais"
                          },
                          "value": null
                        }
                      ],
                      "editing": false,
                      "id": 2
                    },
                    {
                      "header": {
                        "type": "application/vnd.lime.media-link+json",
                        "value": {
                          "title": "Take.Charge",
                          "text": "Apropriar-se para fazer a diferença",
                          "type": "image/png",
                          "uri": "https://i.imgur.com/ZDQmziW.png",
                          "aspectRatio": "2:1"
                        }
                      },
                      "options": [
                        {
                          "label": {
                            "type": "text/plain",
                            "value": "⚡ Saber mais"
                          },
                          "value": null
                        }
                      ],
                      "editing": false,
                      "id": 3
                    },
                    {
                      "header": {
                        "type": "application/vnd.lime.media-link+json",
                        "value": {
                          "title": "Take.Simple",
                          "text": "Simplicidade é o último grau de sofisticação",
                          "type": "image/png",
                          "uri": "https://i.imgur.com/qdMmAIv.png",
                          "aspectRatio": "2:1"
                        }
                      },
                      "options": [
                        {
                          "label": {
                            "type": "text/plain",
                            "value": "🎯 Saber mais"
                          },
                          "value": null
                        }
                      ],
                      "editing": false,
                      "id": 4
                    },
                    {
                      "header": {
                        "type": "application/vnd.lime.media-link+json",
                        "value": {
                          "title": "Take.Higher",
                          "text": "Pensar grande e ir além",
                          "type": "image/png",
                          "uri": "https://i.imgur.com/HlpPuyu.png",
                          "aspectRatio": "2:1"
                        }
                      },
                      "options": [
                        {
                          "label": {
                            "type": "text/plain",
                            "value": "🚀 Saber mais"
                          },
                          "value": null
                        }
                      ],
                      "editing": false,
                      "id": 5
                    },
                    {
                      "header": {
                        "type": "application/vnd.lime.media-link+json",
                        "value": {
                          "title": "Desafio",
                          "text": "----",
                          "type": "image/png",
                          "uri": "https://i.imgur.com/h4urVOo.png",
                          "aspectRatio": "2:1"
                        }
                      },
                      "options": [
                        {
                          "label": {
                            "type": "text/plain",
                            "value": "Fazer desafio"
                          },
                          "value": null
                        }
                      ],
                      "editing": false,
                      "id": 6
                    }
                  ]
                }
              },
              "editable": true,
              "deletable": true,
              "position": "left"
            }
          },
          "$invalid": false,
          "$$hashKey": "object:2740"
        },
        {
          "input": {
            "bypass": true,
            "$cardContent": {
              "document": {
                "id": "1ab8c1de-7cf8-44b3-ae90-6ac5246b0d83",
                "type": "text/plain",
                "textContent": "Entrada do usuário",
                "content": "Entrada do usuário"
              },
              "editable": false,
              "deletable": true,
              "position": "right",
              "editing": false
            },
            "$invalid": false
          },
          "$invalid": false,
          "$$hashKey": "object:2741"
        }
      ],
      "$conditionOutputs": [],
      "$enteringCustomActions": [],
      "$leavingCustomActions": [],
      "$inputSuggestions": [],
      "$defaultOutput": {
        "stateId": "70ccf5e7-45f8-4c3d-b725-fad43263efca",
        "$invalid": false,
        "typeOfStateId": "state"
      },
      "$tags": [],
      "id": "deccb5ac-7418-4703-9324-0e630661fbc5",
      "root": false,
      "$title": "Valores",
      "$position": { "top": "355px", "left": "644px" },
      "$invalidContentActions": false,
      "$invalidOutputs": false,
      "$invalidCustomActions": false,
      "$invalid": false
    },
    "ca13cf15-5cb4-482d-a833-6a55e5a7e7d7": {
      "$contentActions": [
        {
          "action": {
            "$id": "9d8c281a-8a46-4e2a-8f2a-eef944d2f25f",
            "$typeOfContent": "chat-state",
            "type": "SendMessage",
            "settings": {
              "id": "5d522d03-f26c-473d-a4d9-d17ccfc628ca",
              "type": "application/vnd.lime.chatstate+json",
              "content": { "state": "composing", "interval": 1000 }
            },
            "$cardContent": {
              "document": {
                "id": "5d522d03-f26c-473d-a4d9-d17ccfc628ca",
                "type": "application/vnd.lime.chatstate+json",
                "content": { "state": "composing", "interval": 1000 }
              },
              "editable": true,
              "deletable": true,
              "position": "left"
            }
          },
          "$invalid": false
        },
        {
          "action": {
            "$id": "3c032f27-10a5-4cd7-a1d1-d0412457d3b1",
            "$typeOfContent": "text",
            "type": "SendMessage",
            "settings": {
              "id": "d993cd2b-9c52-431e-8f9f-11821c0ba1a3",
              "type": "text/plain",
              "content": "A Take é feita por pessoas e para pessoas. Nossas relações são transparentes e humanizadas.\n",
              "metadata": {}
            },
            "$cardContent": {
              "document": {
                "id": "d993cd2b-9c52-431e-8f9f-11821c0ba1a3",
                "type": "text/plain",
                "content": "A Take é feita por pessoas e para pessoas. Nossas relações são transparentes e humanizadas.\n"
              },
              "editable": true,
              "deletable": true,
              "position": "left"
            }
          },
          "$invalid": false
        },
        {
          "action": {
            "$id": "2dc96431-6870-4011-aeac-c1e21c612884",
            "$typeOfContent": "chat-state",
            "type": "SendMessage",
            "settings": {
              "id": "1579fa09-d7b0-40cc-b2df-97c097b660cf",
              "type": "application/vnd.lime.chatstate+json",
              "content": { "state": "composing", "interval": 1000 }
            },
            "$cardContent": {
              "document": {
                "id": "1579fa09-d7b0-40cc-b2df-97c097b660cf",
                "type": "application/vnd.lime.chatstate+json",
                "content": { "state": "composing", "interval": 1000 }
              },
              "editable": true,
              "deletable": true,
              "position": "left"
            }
          },
          "$invalid": false
        },
        {
          "action": {
            "$id": "47b7bad0-58fb-4f80-ad1c-98344a06e2f7",
            "$typeOfContent": "text",
            "type": "SendMessage",
            "settings": {
              "id": "10b35c99-6df7-42c8-be8e-b2e62a8b2574",
              "type": "text/plain",
              "content": "Cada cliente, cada parceiro e cada Take.Ser é valorizado e respeitado em sua individualidade e está presente em cada bit de nossa empresa.",
              "metadata": {}
            },
            "$cardContent": {
              "document": {
                "id": "10b35c99-6df7-42c8-be8e-b2e62a8b2574",
                "type": "text/plain",
                "content": "Cada cliente, cada parceiro e cada Take.Ser é valorizado e respeitado em sua individualidade e está presente em cada bit de nossa empresa."
              },
              "editable": true,
              "deletable": true,
              "position": "left"
            }
          },
          "$invalid": false
        },
        {
          "input": {
            "bypass": true,
            "$cardContent": {
              "document": {
                "id": "b55f8902-8b1a-4def-9834-d75092fb525f",
                "type": "text/plain",
                "textContent": "Entrada do usuário",
                "content": "Entrada do usuário"
              },
              "editable": false,
              "deletable": true,
              "position": "right",
              "editing": false
            },
            "$invalid": false
          },
          "$invalid": false
        }
      ],
      "$conditionOutputs": [],
      "$enteringCustomActions": [],
      "$leavingCustomActions": [],
      "$inputSuggestions": [],
      "$defaultOutput": {
        "stateId": "eb6eef9d-83ee-4d06-abf1-2eb38fab6226",
        "$invalid": false,
        "typeOfStateId": "state"
      },
      "$tags": [],
      "id": "ca13cf15-5cb4-482d-a833-6a55e5a7e7d7",
      "root": false,
      "$title": "Take.Be",
      "$position": { "top": "700.898px", "left": "121.136px" },
      "$invalidContentActions": false,
      "$invalidOutputs": false,
      "$invalidCustomActions": false,
      "$invalid": false
    },
    "70ccf5e7-45f8-4c3d-b725-fad43263efca": {
      "$contentActions": [
        {
          "input": {
            "bypass": false,
            "$cardContent": {
              "document": {
                "id": "132686e5-2474-4cec-bb98-1c752a6bbb87",
                "type": "text/plain",
                "textContent": "Entrada do usuário",
                "content": "Entrada do usuário"
              },
              "editable": false,
              "deletable": true,
              "position": "right",
              "editing": false
            },
            "$invalid": false
          },
          "$invalid": false
        }
      ],
      "$conditionOutputs": [
        {
          "stateId": "ca13cf15-5cb4-482d-a833-6a55e5a7e7d7",
          "typeOfStateId": "state",
          "$connId": "con_13",
          "$id": "e75d16fa-44a6-4518-8eef-977e4145a6e5",
          "conditions": [
            { "source": "input", "comparison": "contains", "values": ["💙"] }
          ],
          "$invalid": false
        },
        {
          "stateId": "da38dd14-9014-4952-a2c0-3291430aa495",
          "typeOfStateId": "state",
          "$connId": "con_18",
          "$id": "d431fc85-6f28-41b5-b5e6-6c364ec3240a",
          "conditions": [
            { "source": "input", "comparison": "contains", "values": ["🏳️"] }
          ],
          "$invalid": false
        },
        {
          "stateId": "607c57e8-7850-4b9f-aee0-12849dcf3efe",
          "typeOfStateId": "state",
          "$connId": "con_23",
          "$id": "e59c72e3-b0ad-4872-bace-936ce2cd9cc1",
          "conditions": [
            { "source": "input", "comparison": "contains", "values": ["⭐"] }
          ],
          "$invalid": false
        },
        {
          "stateId": "9b1111ce-f118-40ce-941d-0aba6acbe701",
          "typeOfStateId": "state",
          "$connId": "con_28",
          "$id": "859e0033-7676-4052-8ee3-3b6bf0cc4af3",
          "conditions": [
            { "source": "input", "comparison": "contains", "values": ["⚡"] }
          ],
          "$invalid": false
        },
        {
          "stateId": "a5b9b059-a9e7-42f7-b57e-2767873267fe",
          "typeOfStateId": "state",
          "$connId": "con_33",
          "$id": "64041006-6c31-4942-b971-df01c9524321",
          "conditions": [
            { "source": "input", "comparison": "contains", "values": ["🎯"] }
          ],
          "$invalid": false
        },
        {
          "stateId": "867f779d-c518-4f5e-bc3f-20e249cbbab0",
          "typeOfStateId": "state",
          "$connId": "con_38",
          "$id": "87b2cb5e-a7f9-4c0c-b120-82bb0eb28b84",
          "conditions": [
            { "source": "input", "comparison": "contains", "values": ["🚀"] }
          ],
          "$invalid": false
        },
        {
          "stateId": "5ede6c6c-0fa6-4099-9897-938d05d391d4",
          "typeOfStateId": "state",
          "$connId": "con_43",
          "$id": "2a93d4a6-8cf2-49ae-9a09-2e162aec2e1d",
          "conditions": [
            {
              "source": "input",
              "comparison": "contains",
              "values": ["desafio"]
            }
          ],
          "$invalid": false
        }
      ],
      "$enteringCustomActions": [],
      "$leavingCustomActions": [],
      "$inputSuggestions": [],
      "$defaultOutput": { "stateId": "fallback", "$invalid": false },
      "$tags": [],
      "id": "70ccf5e7-45f8-4c3d-b725-fad43263efca",
      "root": false,
      "$title": "Nó de Decisão",
      "$position": { "top": "471px", "left": "647px" },
      "$invalidContentActions": false,
      "$invalidOutputs": false,
      "$invalidCustomActions": false,
      "$invalid": false
    },
    "da38dd14-9014-4952-a2c0-3291430aa495": {
      "$contentActions": [
        {
          "action": {
            "$id": "e26f4c4c-6017-4a93-a0c5-6899bde095c3",
            "$typeOfContent": "chat-state",
            "type": "SendMessage",
            "settings": {
              "id": "77616bff-a6dd-42c4-8895-d91f1f6b69c2",
              "type": "application/vnd.lime.chatstate+json",
              "content": { "state": "composing", "interval": 1000 }
            },
            "$cardContent": {
              "document": {
                "id": "77616bff-a6dd-42c4-8895-d91f1f6b69c2",
                "type": "application/vnd.lime.chatstate+json",
                "content": { "state": "composing", "interval": 1000 }
              },
              "editable": true,
              "deletable": true,
              "position": "left"
            }
          },
          "$invalid": false
        },
        {
          "action": {
            "$id": "c959613e-e5fd-4a9c-8482-6d11726af407",
            "$typeOfContent": "text",
            "type": "SendMessage",
            "settings": {
              "id": "470262aa-3b5c-4f64-a88a-a7fc5f743d45",
              "type": "text/plain",
              "content": "Sabemos que o que faz uma equipe incrível são pessoas incríveis em cooperação. Assim, cada Take.ser busca cumprir sua parte para garantir a vitória do time.\n",
              "metadata": {}
            },
            "$cardContent": {
              "document": {
                "id": "470262aa-3b5c-4f64-a88a-a7fc5f743d45",
                "type": "text/plain",
                "content": "Sabemos que o que faz uma equipe incrível são pessoas incríveis em cooperação. Assim, cada Take.ser busca cumprir sua parte para garantir a vitória do time.\n"
              },
              "editable": true,
              "deletable": true,
              "position": "left"
            }
          },
          "$invalid": false
        },
        {
          "input": {
            "bypass": true,
            "$cardContent": {
              "document": {
                "id": "4ab8824e-9400-46be-8b18-7221f886b841",
                "type": "text/plain",
                "textContent": "Entrada do usuário",
                "content": "Entrada do usuário"
              },
              "editable": false,
              "deletable": true,
              "position": "right",
              "editing": false
            },
            "$invalid": false
          },
          "$invalid": false
        }
      ],
      "$conditionOutputs": [],
      "$enteringCustomActions": [],
      "$leavingCustomActions": [],
      "$inputSuggestions": [],
      "$defaultOutput": {
        "stateId": "eb6eef9d-83ee-4d06-abf1-2eb38fab6226",
        "$invalid": false,
        "typeOfStateId": "state"
      },
      "$tags": [],
      "id": "da38dd14-9014-4952-a2c0-3291430aa495",
      "root": false,
      "$title": "Take.Team",
      "$position": { "top": "703.288px", "left": "346px" },
      "$invalidContentActions": false,
      "$invalidOutputs": false,
      "$invalidCustomActions": false,
      "$invalid": false
    },
    "607c57e8-7850-4b9f-aee0-12849dcf3efe": {
      "$contentActions": [
        {
          "action": {
            "$id": "234b1260-f1ec-4022-b558-2f1d350b7b27",
            "$typeOfContent": "chat-state",
            "type": "SendMessage",
            "settings": {
              "id": "121ef27a-9f7b-4784-ae47-67c18e6e1cac",
              "type": "application/vnd.lime.chatstate+json",
              "content": { "state": "composing", "interval": 1000 }
            },
            "$cardContent": {
              "document": {
                "id": "121ef27a-9f7b-4784-ae47-67c18e6e1cac",
                "type": "application/vnd.lime.chatstate+json",
                "content": { "state": "composing", "interval": 1000 }
              },
              "editable": true,
              "deletable": true,
              "position": "left"
            }
          },
          "$invalid": false
        },
        {
          "action": {
            "$id": "7378149e-c5f9-43a1-b376-ee48f5328a0d",
            "$typeOfContent": "text",
            "type": "SendMessage",
            "settings": {
              "id": "25d1dc37-6370-44a1-b657-ae068633a5e7",
              "type": "text/plain",
              "content": "Com nosso espírito geek e nossa disposição para aprender e crescer, buscamos estar sempre um passo a frente e superarmos os mais exigentes padrões.\n",
              "metadata": {}
            },
            "$cardContent": {
              "document": {
                "id": "25d1dc37-6370-44a1-b657-ae068633a5e7",
                "type": "text/plain",
                "content": "Com nosso espírito geek e nossa disposição para aprender e crescer, buscamos estar sempre um passo a frente e superarmos os mais exigentes padrões.\n"
              },
              "editable": true,
              "deletable": true,
              "position": "left"
            }
          },
          "$invalid": false
        },
        {
          "input": {
            "bypass": true,
            "$cardContent": {
              "document": {
                "id": "bc4b897d-874b-4026-8d90-1185ea45cd31",
                "type": "text/plain",
                "textContent": "Entrada do usuário",
                "content": "Entrada do usuário"
              },
              "editable": false,
              "deletable": true,
              "position": "right",
              "editing": false
            },
            "$invalid": false
          },
          "$invalid": false
        }
      ],
      "$conditionOutputs": [],
      "$enteringCustomActions": [],
      "$leavingCustomActions": [],
      "$inputSuggestions": [],
      "$defaultOutput": {
        "stateId": "eb6eef9d-83ee-4d06-abf1-2eb38fab6226",
        "$invalid": false,
        "typeOfStateId": "state"
      },
      "$tags": [],
      "id": "607c57e8-7850-4b9f-aee0-12849dcf3efe",
      "root": false,
      "$title": "Take.Excellence",
      "$position": { "top": "704.475px", "left": "568px" },
      "$invalidContentActions": false,
      "$invalidOutputs": false,
      "$invalidCustomActions": false,
      "$invalid": false
    },
    "9b1111ce-f118-40ce-941d-0aba6acbe701": {
      "$contentActions": [
        {
          "action": {
            "$id": "b35026d3-5000-4772-a6ea-882ec96a12ab",
            "$typeOfContent": "chat-state",
            "type": "SendMessage",
            "settings": {
              "id": "a07c6d06-da82-487e-89f2-eb466c6ace23",
              "type": "application/vnd.lime.chatstate+json",
              "content": { "state": "composing", "interval": 1000 }
            },
            "$cardContent": {
              "document": {
                "id": "a07c6d06-da82-487e-89f2-eb466c6ace23",
                "type": "application/vnd.lime.chatstate+json",
                "content": { "state": "composing", "interval": 1000 }
              },
              "editable": true,
              "deletable": true,
              "position": "left"
            }
          },
          "$invalid": false
        },
        {
          "action": {
            "$id": "0145338e-7e2a-47f5-a5f1-5d8b329f4d7c",
            "$typeOfContent": "text",
            "type": "SendMessage",
            "settings": {
              "id": "28c3b7e3-c40d-463c-a99b-7738ff609725",
              "type": "text/plain",
              "content": "Apostamos em profissionais que chamam a responsabilidade para si e que, sem medo de ousar, transformem o mundo a sua volta, com muita competência e criatividade!\n",
              "metadata": {}
            },
            "$cardContent": {
              "document": {
                "id": "28c3b7e3-c40d-463c-a99b-7738ff609725",
                "type": "text/plain",
                "content": "Apostamos em profissionais que chamam a responsabilidade para si e que, sem medo de ousar, transformem o mundo a sua volta, com muita competência e criatividade!\n"
              },
              "editable": true,
              "deletable": true,
              "position": "left"
            }
          },
          "$invalid": false
        },
        {
          "input": {
            "bypass": true,
            "$cardContent": {
              "document": {
                "id": "2a66a5c5-c2f1-4583-98ff-e271e5b77e22",
                "type": "text/plain",
                "textContent": "Entrada do usuário",
                "content": "Entrada do usuário"
              },
              "editable": false,
              "deletable": true,
              "position": "right",
              "editing": false
            },
            "$invalid": false
          },
          "$invalid": false
        }
      ],
      "$conditionOutputs": [],
      "$enteringCustomActions": [],
      "$leavingCustomActions": [],
      "$inputSuggestions": [],
      "$defaultOutput": {
        "stateId": "eb6eef9d-83ee-4d06-abf1-2eb38fab6226",
        "$invalid": false,
        "typeOfStateId": "state"
      },
      "$tags": [],
      "id": "9b1111ce-f118-40ce-941d-0aba6acbe701",
      "root": false,
      "$title": "Take.Charge",
      "$position": { "top": "710.559px", "left": "774.695px" },
      "$invalidContentActions": false,
      "$invalidOutputs": false,
      "$invalidCustomActions": false,
      "$invalid": false
    },
    "a5b9b059-a9e7-42f7-b57e-2767873267fe": {
      "$contentActions": [
        {
          "action": {
            "$id": "3ac9e8f2-37cb-4835-8336-17d672dc98a8",
            "$typeOfContent": "chat-state",
            "type": "SendMessage",
            "settings": {
              "id": "f794f706-2ad5-4a26-9adc-c0e48141fa9a",
              "type": "application/vnd.lime.chatstate+json",
              "content": { "state": "composing", "interval": 1000 }
            },
            "$cardContent": {
              "document": {
                "id": "f794f706-2ad5-4a26-9adc-c0e48141fa9a",
                "type": "application/vnd.lime.chatstate+json",
                "content": { "state": "composing", "interval": 1000 }
              },
              "editable": true,
              "deletable": true,
              "position": "left"
            }
          },
          "$invalid": false
        },
        {
          "action": {
            "$id": "a289bd9f-f9da-4d2e-9d21-6317caeeb4a7",
            "$typeOfContent": "text",
            "type": "SendMessage",
            "settings": {
              "id": "28043b03-c44d-497b-9c2d-60acb2bedb56",
              "type": "text/plain",
              "content": "Mantemos o foco no essencial. Menos é mais.\n",
              "metadata": {}
            },
            "$cardContent": {
              "document": {
                "id": "28043b03-c44d-497b-9c2d-60acb2bedb56",
                "type": "text/plain",
                "content": "Mantemos o foco no essencial. Menos é mais.\n"
              },
              "editable": true,
              "deletable": true,
              "position": "left"
            }
          },
          "$invalid": false
        },
        {
          "input": {
            "bypass": true,
            "$cardContent": {
              "document": {
                "id": "f780351e-f9ec-404c-88ed-dd3930aba18b",
                "type": "text/plain",
                "textContent": "Entrada do usuário",
                "content": "Entrada do usuário"
              },
              "editable": false,
              "deletable": true,
              "position": "right",
              "editing": false
            },
            "$invalid": false
          },
          "$invalid": false
        }
      ],
      "$conditionOutputs": [],
      "$enteringCustomActions": [],
      "$leavingCustomActions": [],
      "$inputSuggestions": [],
      "$defaultOutput": {
        "stateId": "eb6eef9d-83ee-4d06-abf1-2eb38fab6226",
        "$invalid": false,
        "typeOfStateId": "state"
      },
      "$tags": [],
      "id": "a5b9b059-a9e7-42f7-b57e-2767873267fe",
      "root": false,
      "$title": "Take.Simple",
      "$position": { "top": "702.593px", "left": "1000.85px" },
      "$invalidContentActions": false,
      "$invalidOutputs": false,
      "$invalidCustomActions": false,
      "$invalid": false
    },
    "867f779d-c518-4f5e-bc3f-20e249cbbab0": {
      "$contentActions": [
        {
          "action": {
            "$id": "f8b93a3e-56bf-4425-a931-bcd8d32d0a6e",
            "$typeOfContent": "chat-state",
            "type": "SendMessage",
            "settings": {
              "id": "7b8b5cdb-ffca-4215-934e-5c6b4d69dcce",
              "type": "application/vnd.lime.chatstate+json",
              "content": { "state": "composing", "interval": 1000 }
            },
            "$cardContent": {
              "document": {
                "id": "7b8b5cdb-ffca-4215-934e-5c6b4d69dcce",
                "type": "application/vnd.lime.chatstate+json",
                "content": { "state": "composing", "interval": 1000 }
              },
              "editable": true,
              "deletable": true,
              "position": "left"
            }
          },
          "$invalid": false,
          "$$hashKey": "object:1114"
        },
        {
          "action": {
            "$id": "a404019a-0848-43c8-b2a2-2748f0b3dfac",
            "$typeOfContent": "text",
            "type": "SendMessage",
            "settings": {
              "id": "e8e3a8cc-104e-4e8e-a46c-fdca1d89b057",
              "type": "text/plain",
              "content": "Não temos medo de sonhar grande, pois sabemos que temos talento e determinação para realizar coisas incríveis!\n",
              "metadata": {}
            },
            "$cardContent": {
              "document": {
                "id": "e8e3a8cc-104e-4e8e-a46c-fdca1d89b057",
                "type": "text/plain",
                "content": "Não temos medo de sonhar grande, pois sabemos que temos talento e determinação para realizar coisas incríveis!\n"
              },
              "editable": true,
              "deletable": true,
              "position": "left"
            }
          },
          "$invalid": false,
          "$$hashKey": "object:1115"
        },
        {
          "input": {
            "bypass": true,
            "$cardContent": {
              "document": {
                "id": "43c37273-3aac-4a57-bad6-c8da8a7e7142",
                "type": "text/plain",
                "textContent": "Entrada do usuário",
                "content": "Entrada do usuário"
              },
              "editable": false,
              "deletable": true,
              "position": "right",
              "editing": false
            },
            "$invalid": false
          },
          "$invalid": false,
          "$$hashKey": "object:1116"
        }
      ],
      "$conditionOutputs": [],
      "$enteringCustomActions": [],
      "$leavingCustomActions": [],
      "$inputSuggestions": [],
      "$defaultOutput": {
        "stateId": "eb6eef9d-83ee-4d06-abf1-2eb38fab6226",
        "$invalid": false,
        "typeOfStateId": "state"
      },
      "$tags": [],
      "id": "867f779d-c518-4f5e-bc3f-20e249cbbab0",
      "root": false,
      "$title": "Take.Higher",
      "$position": { "top": "697.508px", "left": "1224.49px" },
      "$invalidContentActions": false,
      "$invalidOutputs": false,
      "$invalidCustomActions": false,
      "$invalid": false
    },
    "5ede6c6c-0fa6-4099-9897-938d05d391d4": {
      "$contentActions": [
        {
          "action": {
            "$id": "c68ca16f-8649-473d-8bb0-87e09b92a9c3",
            "$typeOfContent": "chat-state",
            "type": "SendMessage",
            "settings": {
              "id": "e5ac931d-610c-4048-8d3c-0876983b4224",
              "type": "application/vnd.lime.chatstate+json",
              "content": { "state": "composing", "interval": 1000 },
              "metadata": {}
            },
            "$cardContent": {
              "document": {
                "id": "e5ac931d-610c-4048-8d3c-0876983b4224",
                "type": "application/vnd.lime.chatstate+json",
                "content": { "state": "composing", "interval": 1000 }
              },
              "editable": true,
              "deletable": true,
              "position": "left"
            }
          },
          "$invalid": false,
          "$$hashKey": "object:1038"
        },
        {
          "action": {
            "$id": "38f99b62-d38a-4659-bc2f-5d51b1909e50",
            "$typeOfContent": "text",
            "type": "SendMessage",
            "settings": {
              "id": "ad1d1f85-0e6e-4ff4-8ad3-175893d309f2",
              "type": "text/plain",
              "content": "Conforme solicitado no e-mail\nenviado, o resultado do desafio\nestá disponível abaixo...",
              "metadata": {}
            },
            "$cardContent": {
              "document": {
                "id": "ad1d1f85-0e6e-4ff4-8ad3-175893d309f2",
                "type": "text/plain",
                "content": "Conforme solicitado no e-mail\nenviado, o resultado do desafio\nestá disponível abaixo..."
              },
              "editable": true,
              "deletable": true,
              "position": "left"
            }
          },
          "$invalid": false,
          "$$hashKey": "object:1039"
        },
        {
          "action": {
            "$id": "168152a4-f44e-438c-b7cf-e9730cafb7d3",
            "$typeOfContent": "raw-content",
            "type": "SendRawMessage",
            "settings": {
              "metadata": {},
              "type": "application/vnd.lime.collection+json",
              "rawContent": "{{carousel}}"
            }
          },
          "$invalid": false,
          "$$hashKey": "object:1040"
        },
        {
          "input": {
            "bypass": true,
            "$cardContent": {
              "document": {
                "id": "bc59feca-c4ea-411d-92ec-bce10353d51e",
                "type": "text/plain",
                "textContent": "Entrada do usuário",
                "content": "Entrada do usuário"
              },
              "editable": false,
              "deletable": true,
              "position": "right",
              "editing": false
            },
            "$invalid": false
          },
          "$invalid": false,
          "$$hashKey": "object:1041"
        }
      ],
      "$conditionOutputs": [],
      "$enteringCustomActions": [
        {
          "$id": "f32bc33f-50eb-4f85-a8d9-086ac8b26b26",
          "$typeOfContent": "",
          "type": "ProcessHttp",
          "$title": "GetTakeblipRepositories",
          "$invalid": false,
          "settings": {
            "headers": {},
            "method": "GET",
            "uri": "https://take-teste-tecnico.herokuapp.com/repositories/takenet?direction=asc&count=5",
            "responseBodyVariable": "repositories"
          },
          "conditions": []
        },
        {
          "$id": "bcbec42e-e074-4b2e-a3f7-fe50b1c181a2",
          "$typeOfContent": "",
          "type": "ExecuteScript",
          "$title": "HandleGetRepositoriesResponse",
          "$invalid": false,
          "settings": {
            "function": "run",
            "source": "/**\n            * All input variables needs to be passed as function param;\n            * Objects received as param needs to be parsed. Ex.: JSON.parse(inputVariable1);\n            * Objects returned needs to be stringfied. Ex.: JSON.stringify(inputVariable1);\n            **/\n            function run(input) {\n                const repositories = JSON.parse(input)\n\n                const carousel = { \n                    itemType: \"application/vnd.lime.document-select+json\",\n                    items: repositories.map((repository) => ({\n                        header: {\n                            type: \"application/vnd.lime.media-link+json\",\n                            value: {\n                                title: repository.fullName,\n                                text: repository.description,\n                                type: \"image/png\",\n                                uri: repository.owner.avatarUrl\n                            }\n                        },\n                        options: []\n                    }))\n                }\n\n                \n\n                return JSON.stringify(carousel); //Return value will be saved as \"Return value variable\" field name\n            }",
            "inputVariables": ["repositories"],
            "outputVariable": "carousel",
            "LocalTimeZoneEnabled": false
          },
          "conditions": []
        }
      ],
      "$leavingCustomActions": [],
      "$inputSuggestions": [],
      "$defaultOutput": {
        "stateId": "eb6eef9d-83ee-4d06-abf1-2eb38fab6226",
        "$invalid": false,
        "typeOfStateId": "state"
      },
      "$tags": [],
      "id": "5ede6c6c-0fa6-4099-9897-938d05d391d4",
      "root": false,
      "$title": "Desafio",
      "$position": { "top": "702px", "left": "1456px" },
      "$invalidContentActions": false,
      "$invalidOutputs": false,
      "$invalidCustomActions": false,
      "$invalid": false
    },
    "eb6eef9d-83ee-4d06-abf1-2eb38fab6226": {
      "$contentActions": [
        {
          "action": {
            "$id": "970512fa-4a95-4e57-a6ec-511ee1274e5e",
            "$typeOfContent": "chat-state",
            "type": "SendMessage",
            "settings": {
              "id": "564cd619-b4a1-48c0-92e2-4259c85490bc",
              "type": "application/vnd.lime.chatstate+json",
              "content": { "state": "composing", "interval": "4000" },
              "metadata": {}
            },
            "$cardContent": {
              "document": {
                "id": "564cd619-b4a1-48c0-92e2-4259c85490bc",
                "type": "application/vnd.lime.chatstate+json",
                "content": { "state": "composing", "interval": "4000" }
              },
              "editable": true,
              "deletable": true,
              "position": "left"
            }
          },
          "$invalid": false,
          "$$hashKey": "object:3585"
        },
        {
          "action": {
            "$id": "d9af0d1e-e73e-42cf-9177-31a117d66263",
            "$typeOfContent": "select-immediate",
            "type": "SendMessage",
            "settings": {
              "id": "272f0d21-8424-4bca-bf5a-665951172bb0",
              "type": "application/vnd.lime.select+json",
              "content": {
                "text": "Se quiser saber mais sobre outros valores é só falar",
                "scope": "immediate",
                "options": [
                  {
                    "text": "💙 Be",
                    "previewText": "💙 Be",
                    "value": null,
                    "index": 0,
                    "type": null
                  },
                  {
                    "text": "🏳️ Team",
                    "previewText": "🏳️ Team",
                    "value": null,
                    "index": 1,
                    "type": null
                  },
                  {
                    "index": -1,
                    "text": "⭐ Excellence",
                    "previewText": "⭐ Excellence",
                    "type": null,
                    "value": null
                  },
                  {
                    "index": -1,
                    "text": "⚡ Charge",
                    "previewText": "⚡ Charge",
                    "type": null,
                    "value": null
                  },
                  {
                    "index": -1,
                    "text": "🎯 Simple",
                    "previewText": "🎯 Simple",
                    "type": null,
                    "value": null
                  },
                  {
                    "index": -1,
                    "text": "🚀 Higher",
                    "previewText": "🚀 Higher",
                    "type": null,
                    "value": null
                  },
                  {
                    "index": -1,
                    "text": "💡 Desafio",
                    "previewText": "💡 Desafio",
                    "type": null,
                    "value": null
                  }
                ]
              },
              "metadata": {}
            },
            "$cardContent": {
              "document": {
                "id": "272f0d21-8424-4bca-bf5a-665951172bb0",
                "type": "application/vnd.lime.select+json",
                "content": {
                  "text": "Se quiser saber mais sobre outros valores é só falar",
                  "scope": "immediate",
                  "options": [
                    {
                      "text": "💙 Be",
                      "previewText": "💙 Be",
                      "value": null,
                      "index": 0,
                      "type": null
                    },
                    {
                      "text": "🏳️ Team",
                      "previewText": "🏳️ Team",
                      "value": null,
                      "index": 1,
                      "type": null
                    },
                    {
                      "index": -1,
                      "text": "⭐ Excellence",
                      "previewText": "⭐ Excellence",
                      "type": null,
                      "value": null
                    },
                    {
                      "index": -1,
                      "text": "⚡ Charge",
                      "previewText": "⚡ Charge",
                      "type": null,
                      "value": null
                    },
                    {
                      "index": -1,
                      "text": "🎯 Simple",
                      "previewText": "🎯 Simple",
                      "type": null,
                      "value": null
                    },
                    {
                      "index": -1,
                      "text": "🚀 Higher",
                      "previewText": "🚀 Higher",
                      "type": null,
                      "value": null
                    },
                    {
                      "index": -1,
                      "text": "💡 Desafio",
                      "previewText": "💡 Desafio",
                      "type": null,
                      "value": null
                    }
                  ]
                }
              },
              "editable": true,
              "deletable": true,
              "position": "left"
            }
          },
          "$invalid": false,
          "$$hashKey": "object:3586"
        },
        {
          "input": {
            "bypass": true,
            "$cardContent": {
              "document": {
                "id": "40b7afc9-e54e-443f-a9d7-e94665bdf56b",
                "type": "text/plain",
                "textContent": "Entrada do usuário",
                "content": "Entrada do usuário"
              },
              "editable": false,
              "deletable": true,
              "position": "right",
              "editing": false
            },
            "$invalid": false
          },
          "$invalid": false,
          "$$hashKey": "object:3587"
        }
      ],
      "$conditionOutputs": [],
      "$enteringCustomActions": [],
      "$leavingCustomActions": [],
      "$inputSuggestions": [
        "💙 Be",
        "🏳️ Team",
        "⭐ Excellence",
        "⚡ Charge",
        "🎯 Simple",
        "🚀 Higher",
        "💡 Desafio"
      ],
      "$defaultOutput": {
        "stateId": "70ccf5e7-45f8-4c3d-b725-fad43263efca",
        "$invalid": false,
        "typeOfStateId": "state"
      },
      "$tags": [],
      "id": "eb6eef9d-83ee-4d06-abf1-2eb38fab6226",
      "root": false,
      "$title": "Navegação",
      "$position": { "top": "941.458px", "left": "653.966px" },
      "$invalidContentActions": false,
      "$invalidOutputs": false,
      "$invalidCustomActions": false,
      "$invalid": false
    }
  },
  "globalAction": {
    "$contentActions": [],
    "$conditionOutputs": [],
    "$enteringCustomActions": [],
    "$leavingCustomActions": [],
    "$inputSuggestions": [],
    "$defaultOutput": { "stateId": "fallback", "$invalid": false },
    "$tags": [],
    "id": "global-actions",
    "$invalidContentActions": false,
    "$invalidOutputs": false,
    "$invalidCustomActions": false
  }
}
